%YAML 1.1
%TAG !u! tag:unity3d.com,2011:
--- !u!114 &11400000
MonoBehaviour:
  m_ObjectHideFlags: 0
  m_CorrespondingSourceObject: {fileID: 0}
  m_PrefabInstance: {fileID: 0}
  m_PrefabAsset: {fileID: 0}
  m_GameObject: {fileID: 0}
  m_Enabled: 1
  m_EditorHideFlags: 0
  m_Script: {fileID: 11500000, guid: b589b0a15a226b44fbf2094e539a614b, type: 3}
  m_Name: LaserSpawner
  m_EditorClassIdentifier: 
  m_Prefab: {fileID: 550893837285353908, guid: 66b41c4aafd792146ba02b6532129c9d, type: 3}
